src/Fase1/simulation/qsim/miniprojLSD.msim.vcd
$comment
	File created using the following command:
		vcd file miniprojLSD.msim.vcd -direction
$end
$date
	Thu Apr 12 15:48:28 2018
$end
$version
	ModelSim Version 10.4b
$end
$timescale
	1ps
$end

$scope module clockAdjuster_vlg_vec_tst $end
$var reg 1 ! clkIn $end
$var wire 1 " clkOut $end

$scope module i1 $end
$var wire 1 # gnd $end
$var wire 1 $ vcc $end
$var wire 1 % unknown $end
$var tri1 1 & devclrn $end
$var tri1 1 ' devpor $end
$var tri1 1 ( devoe $end
$var wire 1 ) clkOut~output_o $end
$var wire 1 * clkIn~input_o $end
$var wire 1 + Add0~0_combout $end
$var wire 1 , Add0~1 $end
$var wire 1 - Add0~2_combout $end
$var wire 1 . s_counter~0_combout $end
$var wire 1 / Add0~3 $end
$var wire 1 0 Add0~4_combout $end
$var wire 1 1 Add0~5 $end
$var wire 1 2 Add0~6_combout $end
$var wire 1 3 Equal0~0_combout $end
$var wire 1 4 Add0~7 $end
$var wire 1 5 Add0~8_combout $end
$var wire 1 6 Add0~9 $end
$var wire 1 7 Add0~10_combout $end
$var wire 1 8 Add0~11 $end
$var wire 1 9 Add0~12_combout $end
$var wire 1 : Add0~13 $end
$var wire 1 ; Add0~14_combout $end
$var wire 1 < Equal0~1_combout $end
$var wire 1 = Add0~15 $end
$var wire 1 > Add0~16_combout $end
$var wire 1 ? Add0~17 $end
$var wire 1 @ Add0~18_combout $end
$var wire 1 A Add0~19 $end
$var wire 1 B Add0~20_combout $end
$var wire 1 C Add0~21 $end
$var wire 1 D Add0~22_combout $end
$var wire 1 E Equal0~2_combout $end
$var wire 1 F Add0~23 $end
$var wire 1 G Add0~24_combout $end
$var wire 1 H Add0~25 $end
$var wire 1 I Add0~26_combout $end
$var wire 1 J Add0~27 $end
$var wire 1 K Add0~28_combout $end
$var wire 1 L Add0~29 $end
$var wire 1 M Add0~30_combout $end
$var wire 1 N Equal0~3_combout $end
$var wire 1 O Equal0~4_combout $end
$var wire 1 P Add0~31 $end
$var wire 1 Q Add0~32_combout $end
$var wire 1 R Add0~33 $end
$var wire 1 S Add0~34_combout $end
$var wire 1 T Add0~35 $end
$var wire 1 U Add0~36_combout $end
$var wire 1 V Add0~37 $end
$var wire 1 W Add0~38_combout $end
$var wire 1 X Equal0~5_combout $end
$var wire 1 Y Add0~39 $end
$var wire 1 Z Add0~40_combout $end
$var wire 1 [ Add0~41 $end
$var wire 1 \ Add0~42_combout $end
$var wire 1 ] Add0~43 $end
$var wire 1 ^ Add0~44_combout $end
$var wire 1 _ Add0~45 $end
$var wire 1 ` Add0~46_combout $end
$var wire 1 a Equal0~6_combout $end
$var wire 1 b Add0~47 $end
$var wire 1 c Add0~48_combout $end
$var wire 1 d Add0~49 $end
$var wire 1 e Add0~50_combout $end
$var wire 1 f Add0~51 $end
$var wire 1 g Add0~52_combout $end
$var wire 1 h Add0~53 $end
$var wire 1 i Add0~54_combout $end
$var wire 1 j Equal0~7_combout $end
$var wire 1 k Add0~55 $end
$var wire 1 l Add0~56_combout $end
$var wire 1 m Add0~57 $end
$var wire 1 n Add0~58_combout $end
$var wire 1 o Add0~59 $end
$var wire 1 p Add0~60_combout $end
$var wire 1 q Equal0~8_combout $end
$var wire 1 r Equal0~9_combout $end
$var wire 1 s clkOut~reg0_q $end
$var wire 1 t s_counter [30] $end
$var wire 1 u s_counter [29] $end
$var wire 1 v s_counter [28] $end
$var wire 1 w s_counter [27] $end
$var wire 1 x s_counter [26] $end
$var wire 1 y s_counter [25] $end
$var wire 1 z s_counter [24] $end
$var wire 1 { s_counter [23] $end
$var wire 1 | s_counter [22] $end
$var wire 1 } s_counter [21] $end
$var wire 1 ~ s_counter [20] $end
$var wire 1 !! s_counter [19] $end
$var wire 1 "! s_counter [18] $end
$var wire 1 #! s_counter [17] $end
$var wire 1 $! s_counter [16] $end
$var wire 1 %! s_counter [15] $end
$var wire 1 &! s_counter [14] $end
$var wire 1 '! s_counter [13] $end
$var wire 1 (! s_counter [12] $end
$var wire 1 )! s_counter [11] $end
$var wire 1 *! s_counter [10] $end
$var wire 1 +! s_counter [9] $end
$var wire 1 ,! s_counter [8] $end
$var wire 1 -! s_counter [7] $end
$var wire 1 .! s_counter [6] $end
$var wire 1 /! s_counter [5] $end
$var wire 1 0! s_counter [4] $end
$var wire 1 1! s_counter [3] $end
$var wire 1 2! s_counter [2] $end
$var wire 1 3! s_counter [1] $end
$var wire 1 4! s_counter [0] $end
$upscope $end
$upscope $end
$enddefinitions $end
#0
$dumpvars
0!
0"
0#
1$
x%
1&
1'
1(
0)
0*
1+
0,
0-
0.
1/
00
01
02
03
14
05
06
07
18
09
0:
0;
1<
1=
0>
0?
0@
1A
0B
0C
0D
1E
1F
0G
0H
0I
1J
0K
0L
0M
1N
0O
1P
0Q
0R
0S
1T
0U
0V
0W
1X
1Y
0Z
0[
0\
1]
0^
0_
0`
1a
1b
0c
0d
0e
1f
0g
0h
0i
1j
1k
0l
0m
0n
1o
0p
1q
0r
0s
04!
03!
02!
01!
00!
0/!
0.!
0-!
0,!
0+!
0*!
0)!
0(!
0'!
0&!
0%!
0$!
0#!
0"!
0!!
0~
0}
0|
0{
0z
0y
0x
0w
0v
0u
0t
$end
#10000
1!
1*
14!
13
1,
0+
1O
1-
1r
1.
0.
#20000
0!
0*
#30000
1!
1*
04!
1s
1)
03
0,
1"
1+
0O
0-
0r
#40000
0!
0*
#50000
1!
1*
14!
0s
0)
13
1,
0"
0+
1O
1-
1r
1.
0.
#60000
0!
0*
#70000
1!
1*
04!
1s
1)
03
0,
1"
1+
0O
0-
0r
#80000
0!
0*
#90000
1!
1*
14!
0s
0)
13
1,
0"
0+
1O
1-
1r
1.
0.
#100000
0!
0*
#110000
1!
1*
04!
1s
1)
03
0,
1"
1+
0O
0-
0r
#120000
0!
0*
#130000
1!
1*
14!
0s
0)
13
1,
0"
0+
1O
1-
1r
1.
0.
#140000
0!
0*
#150000
1!
1*
04!
1s
1)
03
0,
1"
1+
0O
0-
0r
#160000
0!
0*
#170000
1!
1*
14!
0s
0)
13
1,
0"
0+
1O
1-
1r
1.
0.
#180000
0!
0*
#190000
1!
1*
04!
1s
1)
03
0,
1"
1+
0O
0-
0r
#200000
0!
0*
#210000
1!
1*
14!
0s
0)
13
1,
0"
0+
1O
1-
1r
1.
0.
#220000
0!
0*
#230000
1!
1*
04!
1s
1)
03
0,
1"
1+
0O
0-
0r
#240000
0!
0*
#250000
1!
1*
14!
0s
0)
13
1,
0"
0+
1O
1-
1r
1.
0.
#260000
0!
0*
#270000
1!
1*
04!
1s
1)
03
0,
1"
1+
0O
0-
0r
#280000
0!
0*
#290000
1!
1*
14!
0s
0)
13
1,
0"
0+
1O
1-
1r
1.
0.
#300000
0!
0*
#310000
1!
1*
04!
1s
1)
03
0,
1"
1+
0O
0-
0r
#320000
0!
0*
#330000
1!
1*
14!
0s
0)
13
1,
0"
0+
1O
1-
1r
1.
0.
#340000
0!
0*
#350000
1!
1*
04!
1s
1)
03
0,
1"
1+
0O
0-
0r
#360000
0!
0*
#370000
1!
1*
14!
0s
0)
13
1,
0"
0+
1O
1-
1r
1.
0.
#380000
0!
0*
#390000
1!
1*
04!
1s
1)
03
0,
1"
1+
0O
0-
0r
#400000
0!
0*
#410000
1!
1*
14!
0s
0)
13
1,
0"
0+
1O
1-
1r
1.
0.
#420000
0!
0*
#430000
1!
1*
04!
1s
1)
03
0,
1"
1+
0O
0-
0r
#440000
0!
0*
#450000
1!
1*
14!
0s
0)
13
1,
0"
0+
1O
1-
1r
1.
0.
#460000
0!
0*
#470000
1!
1*
04!
1s
1)
03
0,
1"
1+
0O
0-
0r
#480000
0!
0*
#490000
1!
1*
14!
0s
0)
13
1,
0"
0+
1O
1-
1r
1.
0.
#500000
0!
0*
#510000
1!
1*
04!
1s
1)
03
0,
1"
1+
0O
0-
0r
#520000
0!
0*
#530000
1!
1*
14!
0s
0)
13
1,
0"
0+
1O
1-
1r
1.
0.
#540000
0!
0*
#550000
1!
1*
04!
1s
1)
03
0,
1"
1+
0O
0-
0r
#560000
0!
0*
#570000
1!
1*
14!
0s
0)
13
1,
0"
0+
1O
1-
1r
1.
0.
#580000
0!
0*
#590000
1!
1*
04!
1s
1)
03
0,
1"
1+
0O
0-
0r
#600000
0!
0*
#610000
1!
1*
14!
0s
0)
13
1,
0"
0+
1O
1-
1r
1.
0.
#620000
0!
0*
#630000
1!
1*
04!
1s
1)
03
0,
1"
1+
0O
0-
0r
#640000
0!
0*
#650000
1!
1*
14!
0s
0)
13
1,
0"
0+
1O
1-
1r
1.
0.
#660000
0!
0*
#670000
1!
1*
04!
1s
1)
03
0,
1"
1+
0O
0-
0r
#680000
0!
0*
#690000
1!
1*
14!
0s
0)
13
1,
0"
0+
1O
1-
1r
1.
0.
#700000
0!
0*
#710000
1!
1*
04!
1s
1)
03
0,
1"
1+
0O
0-
0r
#720000
0!
0*
#730000
1!
1*
14!
0s
0)
13
1,
0"
0+
1O
1-
1r
1.
0.
#740000
0!
0*
#750000
1!
1*
04!
1s
1)
03
0,
1"
1+
0O
0-
0r
#760000
0!
0*
#770000
1!
1*
14!
0s
0)
13
1,
0"
0+
1O
1-
1r
1.
0.
#780000
0!
0*
#790000
1!
1*
04!
1s
1)
03
0,
1"
1+
0O
0-
0r
#800000
0!
0*
#810000
1!
1*
14!
0s
0)
13
1,
0"
0+
1O
1-
1r
1.
0.
#820000
0!
0*
#830000
1!
1*
04!
1s
1)
03
0,
1"
1+
0O
0-
0r
#840000
0!
0*
#850000
1!
1*
14!
0s
0)
13
1,
0"
0+
1O
1-
1r
1.
0.
#860000
0!
0*
#870000
1!
1*
04!
1s
1)
03
0,
1"
1+
0O
0-
0r
#880000
0!
0*
#890000
1!
1*
14!
0s
0)
13
1,
0"
0+
1O
1-
1r
1.
0.
#900000
0!
0*
#910000
1!
1*
04!
1s
1)
03
0,
1"
1+
0O
0-
0r
#920000
0!
0*
#930000
1!
1*
14!
0s
0)
13
1,
0"
0+
1O
1-
1r
1.
0.
#940000
0!
0*
#950000
1!
1*
04!
1s
1)
03
0,
1"
1+
0O
0-
0r
#960000
0!
0*
#970000
1!
1*
14!
0s
0)
13
1,
0"
0+
1O
1-
1r
1.
0.
#980000
0!
0*
#990000
1!
1*
04!
1s
1)
03
0,
1"
1+
0O
0-
0r
